<svg width="17" height="16" viewBox="0 0 17 16" fill="none" xmlns="http://www.w3.org/2000/svg">
<path d="M16.3248 0.377174C16.1063 0.188565 15.8425 0.064954 15.5615 0.0194947C15.2806 -0.0259645 14.993 0.00842934 14.7295 0.119016L0.971643 5.88028C0.677423 6.00584 0.426975 6.22124 0.253539 6.49788C0.080104 6.77453 -0.00811651 7.09934 0.000587261 7.4292C0.00929103 7.75907 0.114507 8.07839 0.302271 8.34478C0.490035 8.61117 0.751467 8.81204 1.05187 8.92071L3.83477 9.9246L5.3859 15.245C5.40698 15.316 5.43757 15.3837 5.47678 15.4459C5.48273 15.4555 5.49112 15.4626 5.49745 15.4719C5.54274 15.5374 5.59749 15.5954 5.65976 15.6437C5.67747 15.6577 5.69443 15.6708 5.71336 15.6832C5.78624 15.7334 5.86695 15.7701 5.95191 15.7916L5.961 15.7924L5.96615 15.7947C6.01723 15.8055 6.06921 15.811 6.12134 15.811C6.12635 15.811 6.1308 15.8086 6.13577 15.8085C6.21443 15.807 6.2924 15.793 6.36692 15.7668C6.38425 15.7607 6.39911 15.7504 6.41593 15.743C6.47149 15.7192 6.52413 15.6885 6.57276 15.6518C6.6117 15.6178 6.65065 15.5838 6.68962 15.5498L8.76406 13.1742L11.8581 15.6602C12.1305 15.8801 12.4657 15.9997 12.811 16C13.1727 15.9995 13.5232 15.8701 13.8039 15.6334C14.0845 15.3966 14.2782 15.067 14.3524 14.6998L16.8571 1.94638C16.9139 1.65934 16.8943 1.3617 16.8006 1.08529C16.7068 0.808885 16.5424 0.564117 16.3248 0.377174V0.377174ZM6.42574 10.1781C6.3193 10.2881 6.24653 10.4282 6.21658 10.5809L5.97897 11.7785L5.37705 9.71371L8.49793 8.02805L6.42574 10.1781ZM12.799 14.4012L9.14267 11.4634C8.9897 11.3408 8.79781 11.2825 8.60524 11.3001C8.41266 11.3177 8.23355 11.4099 8.10358 11.5583L7.4392 12.3189L7.674 11.1353L13.1116 5.49534C13.2414 5.3609 13.3205 5.18269 13.3345 4.993C13.3485 4.8033 13.2966 4.61466 13.1881 4.46125C13.0796 4.30783 12.9218 4.19979 12.7431 4.15669C12.5645 4.11359 12.3768 4.13828 12.2142 4.22629L4.41035 8.44064L1.55117 7.3554L15.3532 1.62832L12.799 14.4012Z" fill="#7C4188"/>
</svg>
